HTTP_PROXIES = [
    '103.75.238.58:8080',
    '103.60.172.67:80',
    '103.21.150.184:3128',
    '104.236.248.219:3128',
    '109.159.193.185:8080',
    '109.188.95.148:3128',
    '104.244.75.26:8080',
    '103.89.244.98:8080',
    '104.248.8.101:8080',
    '111.29.3.186:80',
    '111.29.3.193:80',
    '111.29.3.193:8080',
    '111.29.3.195:8080',
    '111.29.3.192:8080',
    '108.61.212.158:8080',
    '111.29.3.221:8080',
    '111.29.3.224:80',
    '111.29.3.194:8080',
    '111.29.3.192:80',
    '111.29.3.195:80',
    '111.29.3.190:8080',
    '111.29.3.223:8080',
    '111.29.3.224:8080',
    '111.29.3.190:80',
    '111.29.3.191:80',
    '111.29.3.184:8080'
    ]
HTTPS_PROXIES = [
    '104.248.8.101:8080',
    '104.244.75.26:8080',
    '138.197.104.219:8080',
    '138.197.104.219:3128',
    '109.159.193.185:8080',
    '136.243.47.220:3128',
    '136.244.113.135:8080',
    '109.188.95.148:3128',
    '138.201.72.117:80',
    '116.71.132.53:8080',
    '103.83.79.69:80',
    '118.103.233.182:8080',
    '115.110.129.134:80',
    '103.7.129.243:80',
    '108.61.212.158:8080',
    '101.231.104.82:80',
    '120.234.63.196:3128',
    '103.60.172.67:80',
    '123.31.47.48:3128',
    '118.69.50.154:80',
    '103.52.188.144:80',
    '111.29.3.195:8080',
    '123.31.47.59:3128',
    '121.123.29.150:8080',
    '111.29.3.190:8080',
    '111.29.3.189:8080',
    '119.147.137.79:8008',
    '103.21.150.184:3128',
    '13.56.38.158:80',
    '120.210.219.73:80',
    '119.76.142.245:8080',
    '120.210.219.73:8080',
    '138.197.162.125:8080',
    '123.168.10.163:80',
    '111.29.3.192:8080',
    '111.29.3.195:80',
    '111.29.3.223:8080',
    '111.29.3.191:8080',
    '119.42.123.110:80',
    '111.29.3.194:8080'
]